R-tidyverts-tutorial
…
Converting the dataframe into tsibble format

note: index must be in a date-type format (converted from character variable in raw data to MonthYear using tsibble::yearmonth())

HLTH0037_data_ts <-
  HLTH0037_data_v3 |>
  tsibble::as_tsibble(
    
    ## index = time column in the table
    index = MonthYear, 
    key = c(Hospital,Sex,Age_band, LHB)
  )
HLTH0037_data_ts

# A tsibble: 18,854 x 8 [1M]
# Key:       Hospital, Sex, Age_band, LHB [418]
   MonthYear Hospital                LHB_c…¹ Age_b…² Sex   Organ…³ LHB   Atten…⁴
       <mth> <chr>                   <chr>   <chr>   <chr> <chr>   <chr>   <int>
 1  2016 Apr Breconshire War Memori… W11000… 0-17    Fema… Powys … PT HB      81
 2  2016 May Breconshire War Memori… W11000… 0-17    Fema… Powys … PT HB      67
 3  2016 Jun Breconshire War Memori… W11000… 0-17    Fema… Powys … PT HB      62
 4  2016 Jul Breconshire War Memori… W11000… 0-17    Fema… Powys … PT HB      66
 5  2016 Aug Breconshire War Memori… W11000… 0-17    Fema… Powys … PT HB      56
 6  2016 Sep Breconshire War Memori… W11000… 0-17    Fema… Powys … PT HB      71
 7  2016 Oct Breconshire War Memori… W11000… 0-17    Fema… Powys … PT HB      56
 8  2016 Nov Breconshire War Memori… W11000… 0-17    Fema… Powys … PT HB      53
 9  2016 Dec Breconshire War Memori… W11000… 0-17    Fema… Powys … PT HB      38
10  2017 Jan Breconshire War Memori… W11000… 0-17    Fema… Powys … PT HB      42
# … with 18,844 more rows, and abbreviated variable names ¹​LHB_code, ²​Age_band,
#   ³​Organisation, ⁴​Attendances
…
5. Time series plotting

5.1 Time lines

Use function fabletools::autoplot()

All Wales aggregated data

AllWales_ts<-
  HLTH0037_data_ts |>
  dplyr::summarise(Attendances = sum(Attendances))

AllWales_ts

# A tsibble: 91 x 2 [1M]
   MonthYear Attendances
       <mth>       <int>
 1  2016 Apr       79246
 2  2016 May       88058
 3  2016 Jun       84269
 4  2016 Jul       87252
 5  2016 Aug       85104
 6  2016 Sep       84134
 7  2016 Oct       85177
 8  2016 Nov       78154
 9  2016 Dec       76731
10  2017 Jan       77117
# … with 81 more rows
…
MODEL(y ~ predictors)

The output is a dable (= decomposition table)

STLdecomp_AllWales_ts <-
  AllWales_ts |>
  fabletools::model(
    stl_model = feasts::STL(
      Attendances ~ trend(window = 21) + season(window = 13))
  )

STLdecomp_AllWales_ts |>
  fabletools::components()

# A dable: 91 x 7 [1M]
# Key:     .model [1]
# :        Attendances = trend + season_year + remainder
   .model    MonthYear Attendances  trend season_year remainder season_adjust
   <chr>         <mth>       <int>  <dbl>       <dbl>     <dbl>         <dbl>
 1 stl_model  2016 Apr       79246 81016.      -3527.   1757.          82773.
 2 stl_model  2016 May       88058 81167.       4475.   2417.          83583.
 3 stl_model  2016 Jun       84269 81318.       3394.   -443.          80875.
 4 stl_model  2016 Jul       87252 81468.       8254.  -2470.          78998.
 5 stl_model  2016 Aug       85104 81632.       4345.   -872.          80759.
 6 stl_model  2016 Sep       84134 81795.       2817.   -478.          81317.
 7 stl_model  2016 Oct       85177 81958.       2953.    265.          82224.
 8 stl_model  2016 Nov       78154 82117.      -2460.  -1504.          80614.
 9 stl_model  2016 Dec       76731 82277.      -4042.  -1503.          80773.
10 stl_model  2017 Jan       77117 82436.      -5310.     -9.42        82427.
# … with 81 more rows
…
Series: Attendances 
Model: MEAN 

Mean: 85623.56 
sigma^2: 55117106.59 

Access to

models’ fitted values and residuals

AllWales_benchmarks |> 
  fabletools::augment()

# A tsibble: 75 x 6 [1M]
# Key:       .model [3]
   .model     MonthYear Attendances .fitted  .resid  .innov
   <chr>          <mth>       <int>   <dbl>   <dbl>   <dbl>
 1 mean_model  2021 Jul       91935  85624.   6311.   6311.
 2 mean_model  2021 Aug       77147  85624.  -8477.  -8477.
 3 mean_model  2021 Sep       86004  85624.    380.    380.
 4 mean_model  2021 Oct       83889  85624.  -1735.  -1735.
 5 mean_model  2021 Nov       79245  85624.  -6379.  -6379.
 6 mean_model  2021 Dec       72833  85624. -12791. -12791.
 7 mean_model  2022 Jan       73840  85624. -11784. -11784.
 8 mean_model  2022 Feb       72499  85624. -13125. -13125.
 9 mean_model  2022 Mar       87636  85624.   2012.   2012.
10 mean_model  2022 Apr       82066  85624.  -3558.  -3558.
# … with 65 more rows
…
